{
  "required": true,
  "minVersion": "0.8",
  "package": "dev.frydae.emcutils.mixins",
  "compatibilityLevel": "JAVA_8",
  "mixins": [
    "ChatScreenMixin",
    "ClientEntityPlayerMixin",
    "ClientPlayNetworkHandlerMixin",
    "ConnectScreenMixin",
    "IdentifierMixin",
    "PlayerListHudAccessor",
    "PlayerListHudMixin"
  ],
  "injectors": {
    "defaultRequire": 1
  }
}
